<?xml version="1.0" encoding="UTF-8"?>
<svg width="30px" height="24px" viewBox="0 0 30 24" version="1.1" xmlns="http://www.w3.org/2000/svg" xmlns:xlink="http://www.w3.org/1999/xlink">
    <!-- Generator: Sketch 50 (54983) - http://www.bohemiancoding.com/sketch -->
    <title>Fill 1</title>
    <desc>Created with Sketch.</desc>
    <defs></defs>
    <g id="Page-1" stroke="none" stroke-width="1" fill="none" fill-rule="evenodd">
        <g id="Chat-2" transform="translate(-22.000000, -584.000000)" fill="#CCCCCC">
            <path d="M37.0005994,590.697765 C33.59365,590.697765 30.8218229,593.469053 30.8218229,596.875913 C30.8218229,600.282952 33.5937399,603.05361 37.0005994,603.05361 C40.4069195,603.05361 43.1776677,600.282323 43.1776677,596.875913 C43.1775777,593.469053 40.4062901,590.697765 37.0005994,590.697765 Z M37.0005994,604.209849 C32.9563698,604.209849 29.6661232,600.920232 29.6661232,596.876542 C29.6661232,592.832312 32.9562799,589.542695 37.0005994,589.542695 C41.0437501,589.542695 44.3334572,592.832852 44.3334572,596.876542 C44.3333673,600.919693 41.0436602,604.209849 37.0005994,604.209849 Z M25.4669792,587.86408 C24.192239,587.86408 23.1556697,588.90074 23.1556697,590.17539 L23.1556697,604.235833 C23.1556697,605.510483 24.1923289,606.547143 25.4669792,606.547143 L48.5324215,606.547143 C49.8071616,606.547143 50.8437309,605.510394 50.8437309,604.235833 L50.8437309,590.17539 C50.8437309,588.90065 49.8070717,587.86408 48.5324215,587.86408 L42.9287076,587.86408 L42.2959229,585.607616 C42.2375715,585.345259 42.0011988,585.15519 41.733088,585.15519 L32.2657732,585.15519 C31.9936164,585.15519 31.7624585,585.341213 31.7029383,585.608245 L31.0349989,587.86408 L25.4669792,587.86408 Z M48.5324215,607.702932 L25.4669792,607.702932 C23.5549589,607.702932 21.9999701,606.147854 21.9999701,604.235923 L21.9999701,590.17539 C21.9999701,588.26337 23.5549589,586.708381 25.4669792,586.708381 L30.1734839,586.708381 L30.5854502,585.318646 C30.7535814,584.55819 31.4487635,584.00003 32.2664026,584.00003 L41.7337174,584.00003 C42.5281598,584.00003 43.2313438,584.555312 43.4174569,585.325569 L43.4284259,585.372952 L43.8039788,586.708291 L48.5330508,586.708291 C50.4449813,586.708291 51.9999701,588.26328 51.9999701,590.1753 L51.9999701,604.235743 C51.9994306,606.147854 50.4439923,607.702932 48.5324215,607.702932 Z" id="Fill-1"></path>
        </g>
    </g>
</svg>